{
	"Стоимость": "50000",
	"Тип": "Транспортное_средство",
	"Транспорт": {
		"Краткое_описание": "Старый жигуль",
		"Расходы": "500,00",
		"Вид_собственности": "индивидуальная",
		"Размер_доли": "1",
		"Залог": null
	}
}