{
	"Сумма_задолженности": "",
	"Тип": "перед_банком",
	"Кредит": {
		"Ежемесячный_платёж": "",
		"Дата_погашения": "",
		"Просроченный_платёж": false,
		"Сумма_просроченного_платёжа": "",
		"Дата_последнего_платежа": "",
		"Кредитор": {
			"Наименование": "",
			"ИНН": "",
			"ОГРН": ""
		}
	}
}