[
	{
		"Месяц": "10.2020",
		"Сумма_задолженности": 150000,
		"Ежемесячный_платеж": 7500,
		"Пени": 0,
		"Сумма_платежей": 7500
	},
	{
		"Месяц": "11.2020",
		"Сумма_задолженности": 150000,
		"Ежемесячный_платеж": 7500,
		"Пени": 0,
		"Сумма_платежей": 7500
	},
	{
		"Месяц": "12.2020",
		"Сумма_задолженности": 150000,
		"Ежемесячный_платеж": 7500,
		"Пени": 0,
		"Сумма_платежей": 7500
	},
	{
		"Месяц": "1.2021",
		"Сумма_задолженности": 150000,
		"Ежемесячный_платеж": 7500,
		"Пени": 0,
		"Сумма_платежей": 7500
	},
	{
		"Месяц": "2.2021",
		"Сумма_задолженности": 150000,
		"Ежемесячный_платеж": 7500,
		"Пени": 0,
		"Сумма_платежей": 7500
	},
	{
		"Месяц": "3.2021",
		"Сумма_задолженности": 150000,
		"Ежемесячный_платеж": 7500,
		"Пени": 0,
		"Сумма_платежей": 7500
	},
	{
		"Месяц": "4.2021",
		"Сумма_задолженности": 150000,
		"Ежемесячный_платеж": 7500,
		"Пени": 0,
		"Сумма_платежей": 7500
	},
	{
		"Месяц": "5.2021",
		"Сумма_задолженности": 150000,
		"Ежемесячный_платеж": 7500,
		"Пени": 0,
		"Сумма_платежей": 7500
	},
	{
		"Месяц": "6.2021",
		"Сумма_задолженности": 150000,
		"Ежемесячный_платеж": 7500,
		"Пени": 0,
		"Сумма_платежей": 7500
	},
	{
		"Месяц": "7.2021",
		"Сумма_задолженности": 150000,
		"Ежемесячный_платеж": 7500,
		"Пени": 0,
		"Сумма_платежей": 7500
	},
	{
		"Месяц": "8.2021",
		"Сумма_задолженности": 150000,
		"Ежемесячный_платеж": 7500,
		"Пени": 0,
		"Сумма_платежей": 7500
	},
	{
		"Месяц": "9.2021",
		"Сумма_задолженности": 150000,
		"Ежемесячный_платеж": 7500,
		"Пени": 0,
		"Сумма_платежей": 7500
	},
	{
		"Месяц": "10.2021",
		"Сумма_задолженности": 150000,
		"Ежемесячный_платеж": 7500,
		"Пени": 0,
		"Сумма_платежей": 7500
	},
	{
		"Месяц": "11.2021",
		"Сумма_задолженности": 150000,
		"Ежемесячный_платеж": 7500,
		"Пени": 0,
		"Сумма_платежей": 7500
	},
	{
		"Месяц": "12.2021",
		"Сумма_задолженности": 150000,
		"Ежемесячный_платеж": 7500,
		"Пени": 0,
		"Сумма_платежей": 7500
	},
	{
		"Месяц": "1.2022",
		"Сумма_задолженности": 150000,
		"Ежемесячный_платеж": 7500,
		"Пени": 0,
		"Сумма_платежей": 7500
	},
	{
		"Месяц": "2.2022",
		"Сумма_задолженности": 150000,
		"Ежемесячный_платеж": 7500,
		"Пени": 0,
		"Сумма_платежей": 7500
	},
	{
		"Месяц": "3.2022",
		"Сумма_задолженности": 150000,
		"Ежемесячный_платеж": 7500,
		"Пени": 0,
		"Сумма_платежей": 7500
	},
	{
		"Месяц": "4.2022",
		"Сумма_задолженности": 150000,
		"Ежемесячный_платеж": 7500,
		"Пени": 0,
		"Сумма_платежей": 7500
	},
	{
		"Месяц": "5.2022",
		"Сумма_задолженности": 150000,
		"Ежемесячный_платеж": 7500,
		"Пени": 0,
		"Сумма_платежей": 7500
	},
	{
		"Месяц": "6.2022",
		"Сумма_задолженности": 150000,
		"Ежемесячный_платеж": 7500,
		"Пени": 0,
		"Сумма_платежей": 7500
	},
	{
		"Месяц": "7.2022",
		"Сумма_задолженности": 150000,
		"Ежемесячный_платеж": 7500,
		"Пени": 0,
		"Сумма_платежей": 7500
	},
	{
		"Месяц": "8.2022",
		"Сумма_задолженности": 150000,
		"Ежемесячный_платеж": 7500,
		"Пени": 0,
		"Сумма_платежей": 7500
	},
	{
		"Месяц": "9.2022",
		"Сумма_задолженности": 150000,
		"Ежемесячный_платеж": 7500,
		"Пени": 0,
		"Сумма_платежей": 7500
	},
	{
		"Месяц": "10.2022",
		"Сумма_задолженности": 150000,
		"Ежемесячный_платеж": 7500,
		"Пени": 0,
		"Сумма_платежей": 7500
	},
	{
		"Месяц": "11.2022",
		"Сумма_задолженности": 150000,
		"Ежемесячный_платеж": 7500,
		"Пени": 0,
		"Сумма_платежей": 7500
	},
	{
		"Месяц": "12.2022",
		"Сумма_задолженности": 150000,
		"Ежемесячный_платеж": 7500,
		"Пени": 0,
		"Сумма_платежей": 7500
	},
	{
		"Месяц": "1.2023",
		"Сумма_задолженности": 150000,
		"Ежемесячный_платеж": 7500,
		"Пени": 0,
		"Сумма_платежей": 7500
	},
	{
		"Месяц": "2.2023",
		"Сумма_задолженности": 150000,
		"Ежемесячный_платеж": 7500,
		"Пени": 0,
		"Сумма_платежей": 7500
	},
	{
		"Месяц": "3.2023",
		"Сумма_задолженности": 150000,
		"Ежемесячный_платеж": 7500,
		"Пени": 0,
		"Сумма_платежей": 7500
	},
	{
		"Месяц": "4.2023",
		"Сумма_задолженности": 150000,
		"Ежемесячный_платеж": 7500,
		"Пени": 0,
		"Сумма_платежей": 7500
	},
	{
		"Месяц": "5.2023",
		"Сумма_задолженности": 150000,
		"Ежемесячный_платеж": 7500,
		"Пени": 0,
		"Сумма_платежей": 7500
	},
	{
		"Месяц": "6.2023",
		"Сумма_задолженности": 150000,
		"Ежемесячный_платеж": 7500,
		"Пени": 0,
		"Сумма_платежей": 7500
	},
	{
		"Месяц": "7.2023",
		"Сумма_задолженности": 150000,
		"Ежемесячный_платеж": 7500,
		"Пени": 0,
		"Сумма_платежей": 7500
	},
	{
		"Месяц": "8.2023",
		"Сумма_задолженности": 0,
		"Ежемесячный_платеж": 0,
		"Пени": 0,
		"Сумма_платежей": 0
	},
	{
		"Месяц": "9.2023",
		"Сумма_задолженности": 0,
		"Ежемесячный_платеж": 0,
		"Пени": 0,
		"Сумма_платежей": 0
	}
]