[
	{
		"Тип": "перед_банком",
		"Сумма_задолженности": "150000",
		"Кредит": {
			"Ежемесячный_платёж": "7500,00",
			"Дата_погашения": "07.2023",
			"Просроченный_платёж": false,
			"Сумма_просроченного_платёжа": "",
			"Дата_последнего_платежа": "",
			"Кредитор": {
				"Наименование": "ПАО СБЕРБАНК",
				"ИНН": "7707083893",
				"ОГРН": "1027700132195"
			}
		}
	},
	{
		"Тип": "перед_другим_физическим_лицом",
		"Сумма_задолженности": "35000",
		"Долг_с_получателем": {
			"Месяц_возврата_долга": "02.2021",
			"Пени": "",
			"Получатель": {
				"Фамилия": "Тестовый",
				"Имя": "Тест",
				"Отчество": "Тестович"
			}
		}
	}
]