<?xml version="1.0" encoding="utf-8"?>
<!-- Generator: Adobe Illustrator 23.1.1, SVG Export Plug-In . SVG Version: 6.00 Build 0)  -->
<svg version="1.1" id="logo" xmlns="http://www.w3.org/2000/svg" xmlns:xlink="http://www.w3.org/1999/xlink" x="0px" y="0px"
	  viewBox="0 0 207.8 61.9" enable-background="new 0 0 207.8 61.9" xml:space="preserve">
<path id="logo2" fill="#00C9FF" d="M128.1,28.6c2.8,0.8,6.5,2.3,6.5,6.5c0,6-5.8,6.9-10.2,6.9c-5.1,0-8.2-2.7-8.3-2.7
	c0.3-0.4,3-4.8,3-4.8s2.9,2.3,5.3,2.3c1,0,2.3-0.1,2.3-1.5c0-1.5-2.3-1.6-4.8-2.8c-2.2-1.1-4.3-2.5-4.3-5.5c0-4.2,3.7-6.5,9.4-6.5
	c4.1,0,7.2,1.6,7.2,1.6l-2.4,4.6c0,0-2.5-1.3-4.8-1.3c-1.6,0-2.3,0.3-2.3,1.2C124.8,27.7,126.3,28,128.1,28.6 M146.3,35.7
	c-1.2,0-1.7-0.9-1.7-2.8v-6.5h4.1c0.6-1.8,1.6-3.4,2.9-4.7c0.2-0.2,0.4-0.4,0.7-0.6h-7.7v-7.6h-7.4v20.7c0,3.6,1.4,7.8,7.3,7.8
	c3,0,5.4-1.3,5.4-1.3l-1.8-5.7C148.1,35.1,147.3,35.7,146.3,35.7 M168.6,21.1h7.4v20.3h-7.3v-2.3h-0.1c-1.6,1.7-4.1,2.9-7,2.9
	c-6.3,0-10.7-4.8-10.7-10.7c0-1.7,0.4-3.4,1.1-4.8c0.5-1.1,1.2-2,2-2.9c1.9-1.9,4.5-3.1,7.6-3.1c2.9,0,5.3,0.9,7,2.5V21.1z
	 M163.8,36c2.9,0,5-2,5-4.7c0-2.8-2.2-4.8-5-4.8c-2.8,0-5,2-5,4.8C158.8,34.1,160.8,36,163.8,36 M186.9,24.1L186.9,24.1l-0.1-2.9
	h-7.4v20.3h7.4V30.7c0-0.5,0.5-4.1,4.4-4.1c0.4,0,0.7,0,1.1,0.1v-6.1C188.8,21.2,186.9,24.1,186.9,24.1 M206.2,35.1
	c0,0-0.9,0.6-1.8,0.6c-1.2,0-1.7-0.9-1.7-2.8v-6.5h4.5v-5.3h-4.5v-7.6h-7.4v7.2v6.6v7c0,3.6,1.4,7.8,7.3,7.8c3,0,5.4-1.3,5.4-1.3
	L206.2,35.1z"/>
<path id="logo1" d="M93.7,20.9c-1.9,1.5-3.5,3.5-4.4,5.7c-0.2,0-0.3,0-0.5,0c-3.8,0-4.4,3.6-4.4,4.1v10.7h-7.4V21.1h7.4v2.9h0.1
	c0,0,2.3-3.5,6.6-3.5C92.1,20.5,93,20.7,93.7,20.9 M114.8,31.3c0,0.3,0,0.7,0,1H99.2c0,3.1,2.8,4.2,4.6,4.2c2.4,0,3.4-0.4,5.2-2.3
	l5.3,2.5c-2.4,3.8-6.4,5.3-11.1,5.3c-6.5,0-11.8-4.8-11.8-10.7c0-1.4,0.3-2.7,0.8-3.9c0.6-1.3,1.4-2.5,2.4-3.5
	c2.2-2.1,5.2-3.4,8.6-3.4C109.8,20.5,114.8,24.2,114.8,31.3 M107.6,28.4c-0.3-2.1-1.9-3.3-4.1-3.3c-2.5,0-4,1.4-4.1,3.3H107.6z
	 M62.7,18.9c1.7,3.8,2.6,7.9,2.6,12s-0.9,8.2-2.6,12c-1.6,3.7-4,7-7,9.8c-3,2.8-6.5,5.1-10.4,6.6c-4,1.6-8.3,2.4-12.7,2.4
	c-4.4,0-8.7-0.8-12.7-2.4c-3.9-1.6-7.4-3.8-10.4-6.6c-3-2.8-5.3-6.1-7-9.8C0.9,39.2,0,35.1,0,30.9s0.9-8.2,2.6-12c1.6-3.7,4-7,7-9.8
	c3-2.8,6.5-5.1,10.4-6.6C24,0.8,28.3,0,32.7,0c4.4,0,8.7,0.8,12.7,2.4c3.9,1.6,7.4,3.8,10.4,6.6C58.7,11.9,61.1,15.2,62.7,18.9
	 M32.7,54.1c3.7,0,7.3-0.8,10.4-2.2L36.8,46c-1.3,0.3-2.6,0.5-4,0.5c-3,0-5.8-0.8-8.2-2.1v8.4C27.1,53.7,29.8,54.1,32.7,54.1
	 M49.9,47.4c4.5-4.2,7.2-10,7.2-16.4c0-12.8-10.9-23.2-24.5-23.2C19.2,7.8,8.2,18.1,8.2,30.9c0,6.9,3.2,13,8.2,17.3V36.6h1.2h7.1
	h2.6c1.5,1.3,3.4,2.1,5.6,2.1c4.5,0,8.2-3.5,8.2-7.8c0-4.3-3.7-7.8-8.2-7.8c-2.3,0-4.3,0.9-5.8,2.3l5.8,5.5h-8.2h0h-8.2v0V15.3
	l4.8,4.6c3-2.8,7.1-4.6,11.6-4.6c9.1,0,16.4,7,16.4,15.6c0,4.4-1.9,8.3-5,11.1L49.9,47.4"/>
</svg>
