[
	{
		"дата": "2020-05-24T08:00:00Z",
		"год": 2020,
		"месяц": "май",
		"учтены": [],
		"долгов": 0
	},
	{
		"дата": "2020-06-24T08:00:00Z",
		"год": 2020,
		"месяц": "июн",
		"учтены": [],
		"долгов": 0
	},
	{
		"дата": "2020-07-24T08:00:00Z",
		"год": 2020,
		"месяц": "июл",
		"учтены": [],
		"долгов": 0
	},
	{
		"дата": "2020-08-24T08:00:00Z",
		"год": 2020,
		"месяц": "авг",
		"учтены": [],
		"долгов": 0
	},
	{
		"дата": "2020-09-24T08:00:00Z",
		"год": 2020,
		"месяц": "сен",
		"учтены": [],
		"долгов": 0
	},
	{
		"дата": "2020-10-24T08:00:00Z",
		"год": 2020,
		"месяц": "окт",
		"учтены": [],
		"долгов": 0
	},
	{
		"дата": "2020-11-24T08:00:00Z",
		"год": 2020,
		"месяц": "ноя",
		"учтены": [],
		"долгов": 0
	},
	{
		"дата": "2020-12-24T08:00:00Z",
		"год": 2020,
		"месяц": "дек",
		"учтены": [],
		"долгов": 0
	},
	{
		"дата": "2021-01-24T08:00:00Z",
		"год": 2021,
		"месяц": "янв",
		"учтены": [],
		"долгов": 0
	},
	{
		"дата": "2021-02-24T08:00:00Z",
		"год": 2021,
		"месяц": "фев",
		"учтены": [],
		"долгов": 0
	},
	{
		"дата": "2021-03-24T08:00:00Z",
		"год": 2021,
		"месяц": "мар",
		"учтены": [],
		"долгов": 0
	},
	{
		"дата": "2021-04-24T08:00:00Z",
		"год": 2021,
		"месяц": "апр",
		"учтены": [],
		"долгов": 0
	},
	{
		"дата": "2021-05-24T08:00:00Z",
		"год": 2021,
		"месяц": "май",
		"учтены": [],
		"долгов": 0
	},
	{
		"дата": "2021-06-24T08:00:00Z",
		"год": 2021,
		"месяц": "июн",
		"учтены": [],
		"долгов": 0
	},
	{
		"дата": "2021-07-24T08:00:00Z",
		"год": 2021,
		"месяц": "июл",
		"учтены": [],
		"долгов": 0
	},
	{
		"дата": "2021-08-24T08:00:00Z",
		"год": 2021,
		"месяц": "авг",
		"учтены": [],
		"долгов": 0
	},
	{
		"дата": "2021-09-24T08:00:00Z",
		"год": 2021,
		"месяц": "сен",
		"учтены": [],
		"долгов": 0
	},
	{
		"дата": "2021-10-24T08:00:00Z",
		"год": 2021,
		"месяц": "окт",
		"учтены": [],
		"долгов": 0
	},
	{
		"дата": "2021-11-24T08:00:00Z",
		"год": 2021,
		"месяц": "ноя",
		"учтены": [],
		"долгов": 0
	},
	{
		"дата": "2021-12-24T08:00:00Z",
		"год": 2021,
		"месяц": "дек",
		"учтены": [],
		"долгов": 0
	},
	{
		"дата": "2022-01-24T08:00:00Z",
		"год": 2022,
		"месяц": "янв",
		"учтены": [],
		"долгов": 0
	},
	{
		"дата": "2022-02-24T08:00:00Z",
		"год": 2022,
		"месяц": "фев",
		"учтены": [],
		"долгов": 0
	},
	{
		"дата": "2022-03-24T08:00:00Z",
		"год": 2022,
		"месяц": "мар",
		"учтены": [],
		"долгов": 0
	},
	{
		"дата": "2022-04-24T08:00:00Z",
		"год": 2022,
		"месяц": "апр",
		"учтены": [],
		"долгов": 0
	},
	{
		"дата": "2022-05-24T08:00:00Z",
		"год": 2022,
		"месяц": "май",
		"учтены": [],
		"долгов": 0
	},
	{
		"дата": "2022-06-24T08:00:00Z",
		"год": 2022,
		"месяц": "июн",
		"учтены": [],
		"долгов": 0
	},
	{
		"дата": "2022-07-24T08:00:00Z",
		"год": 2022,
		"месяц": "июл",
		"учтены": [],
		"долгов": 0
	},
	{
		"дата": "2022-08-24T08:00:00Z",
		"год": 2022,
		"месяц": "авг",
		"учтены": [],
		"долгов": 0
	},
	{
		"дата": "2022-09-24T08:00:00Z",
		"год": 2022,
		"месяц": "сен",
		"учтены": [],
		"долгов": 0
	},
	{
		"дата": "2022-10-24T08:00:00Z",
		"год": 2022,
		"месяц": "окт",
		"учтены": [],
		"долгов": 0
	},
	{
		"дата": "2022-11-24T08:00:00Z",
		"год": 2022,
		"месяц": "ноя",
		"учтены": [],
		"долгов": 0
	},
	{
		"дата": "2022-12-24T08:00:00Z",
		"год": 2022,
		"месяц": "дек",
		"учтены": [],
		"долгов": 0
	},
	{
		"дата": "2023-01-24T08:00:00Z",
		"год": 2023,
		"месяц": "янв",
		"учтены": [],
		"долгов": 0
	},
	{
		"дата": "2023-02-24T08:00:00Z",
		"год": 2023,
		"месяц": "фев",
		"учтены": [],
		"долгов": 0
	},
	{
		"дата": "2023-03-24T08:00:00Z",
		"год": 2023,
		"месяц": "мар",
		"учтены": [],
		"долгов": 0
	},
	{
		"дата": "2023-04-24T08:00:00Z",
		"год": 2023,
		"месяц": "апр",
		"учтены": [],
		"долгов": 0
	},
	{
		"дата": "2023-05-24T08:00:00Z",
		"год": 2023,
		"месяц": "май",
		"учтены": [],
		"долгов": 0
	},
	{
		"дата": "2023-06-24T08:00:00Z",
		"год": 2023,
		"месяц": "июн",
		"учтены": [],
		"долгов": 0
	},
	{
		"дата": "2023-07-24T08:00:00Z",
		"год": 2023,
		"месяц": "июл",
		"учтены": [],
		"долгов": 0
	},
	{
		"дата": "2023-08-24T08:00:00Z",
		"год": 2023,
		"месяц": "авг",
		"учтены": [],
		"долгов": 0
	},
	{
		"дата": "2023-09-24T08:00:00Z",
		"год": 2023,
		"месяц": "сен",
		"учтены": [],
		"долгов": 0
	},
	{
		"дата": "2023-10-24T08:00:00Z",
		"год": 2023,
		"месяц": "окт",
		"учтены": [],
		"долгов": 0
	},
	{
		"дата": "2023-11-24T08:00:00Z",
		"год": 2023,
		"месяц": "ноя",
		"учтены": [],
		"долгов": 0
	},
	{
		"дата": "2023-12-24T08:00:00Z",
		"год": 2023,
		"месяц": "дек",
		"учтены": [],
		"долгов": 0
	},
	{
		"дата": "2024-01-24T08:00:00Z",
		"год": 2024,
		"месяц": "янв",
		"учтены": [],
		"долгов": 0
	},
	{
		"дата": "2024-02-24T08:00:00Z",
		"год": 2024,
		"месяц": "фев",
		"учтены": [],
		"долгов": 0
	},
	{
		"дата": "2024-03-24T08:00:00Z",
		"год": 2024,
		"месяц": "мар",
		"учтены": [],
		"долгов": 0
	},
	{
		"дата": "2024-04-24T08:00:00Z",
		"год": 2024,
		"месяц": "апр",
		"учтены": [],
		"долгов": 0
	}
]