*************************** 1. row ***************************
id_Email_Message: 1
  RecipientEmail: a@a.a
 id_Email_Sender: 3
           sent!: sent!
*************************** 2. row ***************************
id_Email_Message: 2
  RecipientEmail: b@b.b
 id_Email_Sender: 3
           sent!: sent!
*************************** 3. row ***************************
id_Email_Message: 3
  RecipientEmail: c@c.c
 id_Email_Sender: 3
           sent!: sent!
*************************** 1. row ***************************
id_Email_Sender: 1
   SenderServer: server1
     SenderUser: user1
*************************** 2. row ***************************
id_Email_Sender: 2
   SenderServer: server2
     SenderUser: user2
*************************** 3. row ***************************
id_Email_Sender: 3
   SenderServer: server3
     SenderUser: user3
